
namespace = anb_ruler

# Any culture that lives longer 120 years max should be given this flag
country_event = {
	id = anb_ruler.0
	title = anb_ruler.0.t
	desc = anb_ruler.0.d
	picture = DIPLOMACY_eventPicture
	
    trigger = {
		has_dlc = "Rights of Man"
		months_of_ruling = 1
		OR = {
			ruler_is_elven = yes
			ruler_is_dwarven = yes
			ruler_is_gnomish = yes
			ruler_is_half_elven = yes
			#or lich
        }
		NOT = { ruler_has_personality = immortal_personality } 
        NOT = { has_ruler_flag = set_immortality }
		is_lesser_in_union = no
    }
	
	immediate = {
		hidden_effect = {
			if = {
				limit = { ruler_has_max_personalities = yes }
				clear_ruler_personalities = yes
			}
			add_ruler_personality = immortal_personality
			set_ruler_flag = set_immortality
		}
	}
	option = {
		name = anb_ruler.0.a
	}
}

# Death event
# When a ruler has an Immortal flag, and is of a culture with a long, but not immortal lifespan, this event will strip them of the flag up when they reach the "Old" age for their culture
country_event = {
	id = anb_ruler.1
	title = anb_ruler.1.t
	desc = {
		trigger = { ruler_is_dwarven = yes }
		desc = anb_ruler.1.dwarven
	}
	desc = {
		trigger = { ruler_is_gnomish = yes }
		desc = anb_ruler.1.gnomish
	}
	desc = {
		trigger = { ruler_is_elven = yes }
		desc = anb_ruler.1.elven
	}
	desc = {
		trigger = { ruler_is_half_elven = yes }
		desc = anb_ruler.1.half_elven
	}
	desc = {
		trigger = { has_ruler_flag = lefthand_life_extension }
		desc = anb_ruler.1.lefthand
	}
	picture = DIPLOMACY_eventPicture
	
	mean_time_to_happen = {
		months = 3
	}
	
    trigger = {
        has_dlc = "Rights of Man"
        ruler_has_personality = immortal_personality
		is_lesser_in_union = no
		NOT = { ruler_is_immortal = yes }
		NOT = { has_ruler_flag = end_life }
        OR = {
            # Dwarfs
            AND = {
                ruler_is_dwarven = yes
                ruler_age = 160 #200 Expectancy
            }
            # Gnomes
            AND = {
                ruler_is_gnomish = yes
                ruler_age = 205 #250 Expectancy
            }
            # Elves
            AND = {
                ruler_is_elven = yes
                ruler_age = 350 #400 Expectancy
            }
			# Half-elves
			AND = {
				ruler_is_half_elven = yes
				ruler_age = 80 #100 Expectancy
			}
			# LHP Life Extension
			AND = {
				has_ruler_flag = lefthand_life_extension
				OR = {
					AND = {
						check_variable = {
							which = lefthand_life_extension_max_age_var
							value = 110
						}
						NOT = {
							check_variable = {
								which = lefthand_life_extension_max_age_var
								value = 111
							}
						}
						ruler_age = 110
					}
					AND = {
						check_variable = {
							which = lefthand_life_extension_max_age_var
							value = 140
						}
						NOT = {
							check_variable = {
								which = lefthand_life_extension_max_age_var
								value = 141
							}
						}
						ruler_age = 140
					}
					AND = {
						check_variable = {
							which = lefthand_life_extension_max_age_var
							value = 160
						}
						NOT = {
							check_variable = {
								which = lefthand_life_extension_max_age_var
								value = 161
							}
						}
						ruler_age = 160
					}
					AND = {
						check_variable = {
							which = lefthand_life_extension_max_age_var
							value = 175
						}
						NOT = {
							check_variable = {
								which = lefthand_life_extension_max_age_var
								value = 176
							}
						}
						ruler_age = 175
					}
					AND = {
						check_variable = {
							which = lefthand_life_extension_max_age_var
							value = 185
						}
						NOT = {
							check_variable = {
								which = lefthand_life_extension_max_age_var
								value = 186
							}
						}
						ruler_age = 185
					}
					AND = {
						check_variable = {
							which = lefthand_life_extension_max_age_var
							value = 190
						}
						NOT = {
							check_variable = {
								which = lefthand_life_extension_max_age_var
								value = 191
							}
						}
						ruler_age = 190
					}
					AND = {
						check_variable = {
							which = lefthand_life_extension_max_age_var
							value = 195
						}
						NOT = {
							check_variable = {
								which = lefthand_life_extension_max_age_var
								value = 196
							}
						}
						ruler_age = 195
					}
					ruler_age = 200 #not allowed to live past 200
				}
			}
        }
		#Future Additions: Liches
    }
   
	option = {
		name = anb_ruler.1.a
		
		hidden_effect = { set_ruler_flag = end_life }
		if = {
			limit = { ruler_is_dwarven = yes }
			custom_tooltip = ruler_is_dwarven_tooltip
			hidden_effect = { country_event = { id = anb_ruler.4 days = 10950 random = 7300 } } #30 years + ~20years
		}
		else_if = {
			limit = { ruler_is_gnomish = yes }
			custom_tooltip = ruler_is_gnomish_tooltip
			hidden_effect = { country_event = { id = anb_ruler.4 days = 12775 random = 7300 } } #35 years + ~20years
		}
		else_if = {
			limit = { ruler_is_elven = yes }
			custom_tooltip = ruler_is_elven_tooltip
			hidden_effect = { country_event = { id = anb_ruler.4 days = 14600 random = 7300 } } #40 years + ~20years
		}
		else_if = {
			limit = { ruler_is_half_elven = yes }
			custom_tooltip = ruler_is_half_elven_tooltip
			hidden_effect = { country_event = { id = anb_ruler.4 days = 3650 random = 7300 } } #10 years + ~20years
		}
		else_if = {
			limit = { has_ruler_flag = lefthand_life_extension }
			custom_tooltip = ruler_extended_life_lhp_tooltip
			hidden_effect = { country_event = { id = anb.ruler.4 days = 30 random = 150 } } #30 days + ~150 days
		}
	}
}
#Immortal ruler die
country_event = {
	id = anb_ruler.4
	title = anb_ruler.4.t
	desc = anb_ruler.4.d
	picture = DIPLOMACY_eventPicture
	
	is_triggered_only = yes
	
    trigger = {
        has_ruler_flag = end_life
		NOT = { ruler_is_immortal = yes } 
		is_lesser_in_union = no
    }
   
	option = {
		name = anb_ruler.4.a
		
        kill_ruler = yes
	}
}

# Age Decadence
country_event = {
	id = anb_ruler.2
	title = anb_ruler.2.t
	desc = anb_ruler.2.d
	picture = DIPLOMACY_eventPicture
	hidden = yes
	
    trigger = {
        has_dlc = "Rights of Man"
        ruler_has_personality = immortal_personality
		is_lesser_in_union = no
		OR = {
			ruler_age = 100
			AND = {
				ruler_is_immortal = yes
				OR = {
					had_country_flag = {
						flag = vampire_ruler_has_coffin
						days = 29200
					}
					had_country_flag = {
						flag = lich_ruler_has_phylactery
						days = 29200
					}
				}
			}
		}
		OR = {
			NOT = { has_ruler_flag = decadent_ruler }
			had_ruler_flag = {
				flag = decadent_ruler
				days = 730
			}
		}
    }
	
	#is_triggered_only = yes
	
	mean_time_to_happen = {
		months = 210
		modifier = {
			factor = 0.9
			ruler_age = 200
		}
		modifier = {
			factor = 0.8
			ruler_age = 250
		}
		modifier = {
			factor = 0.7
			ruler_age = 300
		}
		modifier = {
			factor = 0.5
			ruler_age = 350
		}
		
		modifier = {
			factor = 0.9
			ruler_has_personality = careful_personality 
		}
		modifier = {
			factor = 0.9
			ruler_has_personality = zealot_personality 
		}
		modifier = {
			factor = 1.5
			ruler_has_personality = free_thinker_personality 
		}
		modifier = {
			factor = 1.2
			ruler_has_personality = scholar_personality 
		}
		
		modifier = {
			factor = 1.35
			
			has_government_attribute = better_long_lived
		}
	}
	
	after = {
		set_ruler_flag = decadent_ruler
		country_event = { id = anb_ruler.7 }
	}
	
   
	option = {
		name = anb_ruler.2.a
		ai_chance = { factor = 1 }
		trigger = { adm = 0 }
		set_ruler_flag = decadent_1
	}
	
	option = {
		name = anb_ruler.2.a
		ai_chance = { factor = 1 }
		trigger = { dip = 0 }
		set_ruler_flag = decadent_2
	}
	
	option = {
		name = anb_ruler.2.a
		ai_chance = { factor = 1 }
		trigger = { mil = 0 }
		set_ruler_flag = decadent_3
	}
	
	option = {
		name = anb_ruler.2.a
		ai_chance = { factor = 1 }
		trigger = { stability = -3 }
		set_ruler_flag = decadent_4
	}
	
	option = {
		name = anb_ruler.2.a
		ai_chance = { factor = 1 }
		trigger = { stability = -2 }
		set_ruler_flag = decadent_5
	}
	
	option = {
		name = anb_ruler.2.a
		ai_chance = { factor = 1 }
		trigger = { prestige = -80 }
		set_ruler_flag = decadent_6
	}
	
	option = {
		name = anb_ruler.2.a
		ai_chance = { factor = 2 }
		trigger = { NOT = { has_country_modifier = ruler_incoherent_orders } is_at_war = yes }
		set_ruler_flag = decadent_7
	}
	
	option = {
		name = anb_ruler.2.a
		ai_chance = { factor = 1 }
		trigger = { NOT = { has_country_modifier = ruler_complecent_ruler } is_at_war = no }
		set_ruler_flag = decadent_8
	}
	
	option = {
		name = anb_ruler.2.a
		ai_chance = { factor = 1 }
		trigger = { NOT = { has_country_modifier = ruler_antagonized_advisor } }
		set_ruler_flag = decadent_9
	}
	
	option = {
		name = anb_ruler.2.a
		ai_chance = { factor = 1 }
		trigger = { NOT = { has_country_modifier = ruler_stupid_administration_reform } }
		set_ruler_flag = decadent_10
	}
	
	option = {
		name = anb_ruler.2.a
		ai_chance = { factor = 1 }
		set_ruler_flag = decadent_11
	}
}

country_event = {
	id = anb_ruler.7
	title = anb_ruler.7.t
	desc = anb_ruler.7.d
	picture = DIPLOMACY_eventPicture
	
    trigger = {
        has_ruler_flag = decadent_ruler
    }
	
	is_triggered_only = yes
	
	after = {
		hidden_effect = {
			clr_ruler_flag = decadent_1
			clr_ruler_flag = decadent_2
			clr_ruler_flag = decadent_3
			clr_ruler_flag = decadent_4
			clr_ruler_flag = decadent_5
			clr_ruler_flag = decadent_6
			clr_ruler_flag = decadent_7
			clr_ruler_flag = decadent_8
			clr_ruler_flag = decadent_9
			clr_ruler_flag = decadent_10
			clr_ruler_flag = decadent_11
		}
	}
	
   
	option = {
		name = anb_ruler.7.a
		ai_chance = { factor = 1 }
		trigger = { has_ruler_flag = decadent_1 }
		decrease_ruler_adm_effect = yes
	}
	
	option = {
		name = anb_ruler.7.a
		ai_chance = { factor = 1 }
		trigger = { has_ruler_flag = decadent_2 }
		decrease_ruler_dip_effect = yes
	}
	
	option = {
		name = anb_ruler.7.a
		ai_chance = { factor = 1 }
		trigger = { has_ruler_flag = decadent_3 }
		decrease_ruler_mil_effect = yes
	}
	
	option = {
		name = anb_ruler.7.b
		ai_chance = { factor = 1 }
		trigger = { has_ruler_flag = decadent_4 }
		
		reduce_stability_or_adm_power = yes
	}
	
	option = {
		name = anb_ruler.7.b
		ai_chance = { factor = 1 }
		trigger = { has_ruler_flag = decadent_5 }
		if = {
			limit = { stability = -1 }
			add_stability = -2
		}
		else_if = {
			limit = { stability = -2 }
			add_stability = -1
			add_adm_power = -50
		}
		else = {
			add_adm_power = -100
		}
	}
	
	option = {
		name = anb_ruler.7.c
		ai_chance = { factor = 1 }
		trigger = { has_ruler_flag = decadent_6 }
		
		if = {
			limit = { prestige = -80 }
			add_prestige = -20
		}
		else = {
			reduce_stability_or_adm_power = yes
		}
	}
	
	option = {
		name = anb_ruler.7.e
		ai_chance = { factor = 2 }
		trigger = { has_ruler_flag = decadent_7 }
		
		add_ruler_modifier = {
			name = ruler_incoherent_orders
			duration = 3650
		}
	}
	
	option = {
		name = anb_ruler.7.f
		ai_chance = { factor = 1 }
		trigger = { has_ruler_flag = decadent_8 }
		
		add_ruler_modifier = {
			name = ruler_complecent_ruler
			duration = 3650
		}
	}
	
	option = {
		name = anb_ruler.7.g
		ai_chance = { factor = 1 }
		trigger = { has_ruler_flag = decadent_9 }
		
		add_ruler_modifier = {
			name = ruler_antagonized_advisor
			duration = 3650
		}
	}
	
	option = {
		name = anb_ruler.7.h
		ai_chance = { factor = 1 }
		trigger = { has_ruler_flag = decadent_10 }
		add_ruler_modifier = {
			name = ruler_stupid_administration_reform
			duration = 3650
		}
	}
	
	option = {
		name = anb_ruler.7.i
		ai_chance = { factor = 1 }
		trigger = { has_ruler_flag = decadent_11 }
		random_list = {
			50 = { add_years_of_income = -1 }
			35 = { add_years_of_income = -1.5 }
			15 = { add_years_of_income = -2 }
		}
	}
}

# Age Revival
country_event = {
	id = anb_ruler.3
	title = anb_ruler.3.t
	desc = anb_ruler.3.d
	picture = DIPLOMACY_eventPicture
	
    trigger = {
        has_dlc = "Rights of Man"
        ruler_has_personality = immortal_personality
		is_lesser_in_union = no
		#culture_group = elven
		OR = {
			ruler_age = 100
			AND = {
				ruler_is_immortal = yes
				OR = {
					had_country_flag = {
						flag = vampire_ruler_has_coffin
						days = 29200
					}
					had_country_flag = {
						flag = lich_ruler_has_phylactery
						days = 29200
					}
				}
			}
		}
    }
	
	#is_triggered_only = yes
	
	mean_time_to_happen = {
		months = 140
		modifier = {
			factor = 0.8
			ruler_has_personality = free_thinker_personality 
		}
		modifier = {
			factor = 0.9
			ruler_has_personality = scholar_personality 
		}
		
		modifier = {
			factor = 0.9
			
			has_government_attribute = better_long_lived
		}
		# modifier = {
			# factor = 1.5
			# ruler_age = 250
		# }
		# modifier = {
			# factor = 2
			# ruler_age = 300
		# }
		# modifier = {
			# factor = 3
			# ruler_age = 350
		# }
	}
   
	option = {	#We must be open to new change and ideas.
		name = anb_ruler.3.a
		
		increase_ruler_adm_effect = yes
	}
    
    option = {	#There's a whole new world out there, as an elder race we must lead the way!
		name = anb_ruler.3.b
		
		increase_ruler_dip_effect = yes
	}
    
    option = {	#I've seen enough war to know where we're headed.
		name = anb_ruler.3.c
		
        increase_ruler_mil_effect = yes
	}
}

#Long lived consort die
country_event = {
	id = anb_ruler.5
	title = anb_ruler.5.t
	desc = anb_ruler.5.d
	picture = DIPLOMACY_eventPicture
	
    trigger = {
		has_dlc = "Rights of Man"
		consort_has_personality = immortal_personality
		consort_age = 90
		is_lesser_in_union = no
		OR = {
            # Dwarfs
            AND = {
				consort_is_dwarven = yes
                consort_age = 185 #200 Expectancy
            }
            # Gnomes
            AND = {
                consort_is_gnomish = yes
                consort_age = 230 #250 Expectancy
            }
            # Elves
            AND = {
                consort_is_elven = yes
                consort_age = 380 #400 Expectancy
            }
			# Half-elves
			AND = {
				consort_is_half_elven = yes
				consort_age = 90 #100 Expectancy
			}
        }
    }
	
	mean_time_to_happen = {
		years = 10
	}
	
	option = {
		name = anb_ruler.5.a
		remove_consort = yes
	}
}

#Long lived heir die
country_event = {
	id = anb_ruler.6
	title = anb_ruler.6.t
	desc = anb_ruler.6.d
	picture = DIPLOMACY_eventPicture
	
    trigger = {
		has_dlc = "Rights of Man"
		heir_has_personality = immortal_personality
		is_lesser_in_union = no
		heir_age = 90
		OR = {
            # Dwarfs
            AND = {
				heir_is_dwarven = yes
                heir_age = 185 #200 Expectancy
            }
            # Gnomes
            AND = {
                heir_is_gnomish = yes
                heir_age = 230 #250 Expectancy
            }
            # Elves
            AND = {
                heir_is_elven = yes
                heir_age = 380 #400 Expectancy
            }
			# Half-elves
			AND = {
				heir_is_half_elven = yes
				heir_age = 90 #100 Expectancy
			}
        }
    }
	
	mean_time_to_happen = {
		years = 10
	}
	
	option = {
		name = anb_ruler.6.a
		kill_heir = { allow_new_heir = no }
	}
}

#Long lived theocracy ruler abdicate
country_event = {
	id = anb_ruler.10
	title = anb_ruler.10.t
	desc = anb_ruler.10.d
	picture = RELIGION_eventPicture
	
	is_triggered_only = yes
	
    trigger = {
		has_dlc = "Rights of Man"
		government = theocracy
		NOT = { has_adventurer_reform = yes }
		had_ruler_flag = {
			flag = long_lived_theocracy
			days = 7300 #30 years
		}
		OR = {
			ruler_is_elven = yes
			ruler_is_dwarven = yes
			ruler_is_gnomish = yes
        }
		religion_group = cannorian # This is annoying for Bulwari Sun Cults, Dwarven religions and etc... who'd likely not care how long an elf is the priest
		NOT = { has_ruler_modifier = long_lived_theocracy_no_abdication }
    }
	
	option = {
		name = anb_ruler.10.a
		ai_chance = { factor = 100 }
		
		custom_tooltip = step_down_tooltip
		hidden_effect = { kill_ruler = yes }
	}
	
	option = {
		name = anb_ruler.10.b
		ai_chance = { factor = 0 }
		trigger = {
			NOT = { tag = Z97 } #Ravelian State needs to abdicate long-lived rulers for Rectorate Controller to change
		}
		
		add_devotion = -20
		add_ruler_modifier = {
			name = long_lived_theocracy_no_abdication
			duration = -1
		}
	}
}

########################
#### Debug Event
########################
#Consort get immortality
country_event = {
	id = anb_ruler.100
	title = anb_ruler.100.t
	desc = anb_ruler.100.d
	picture = DIPLOMACY_eventPicture
	hidden = yes
	is_triggered_only = yes
	
    trigger = {
		has_dlc = "Rights of Man"
		OR = {
			consort_is_elven = yes
			consort_is_dwarven = yes
			consort_is_gnomish = yes
			consort_is_half_elven = yes
		}
    }
	
	option = {
		name = anb_ruler.100.a
		
		clear_consort_personalities = yes
		add_queen_personality = immortal_personality
		set_consort_flag = set_immortality
	}
}
#Heir get immortality
country_event = {
	id = anb_ruler.101
	title = anb_ruler.101.t
	desc = anb_ruler.101.d
	picture = DIPLOMACY_eventPicture
	hidden = yes
	is_triggered_only = yes
	
    trigger = {
		has_dlc = "Rights of Man"
		OR = {
			heir_is_elven = yes
			heir_is_dwarven = yes
			heir_is_gnomish = yes
			heir_is_half_elven = yes
		}
    }
	
	option = {
		name = anb_ruler.100.a
		
		clear_heir_personalities = yes
		add_heir_personality = immortal_personality
		set_heir_flag = set_immortality
	}
}
